%!PS-Adobe-3.0
%%Pages: (atend)
%%Creator:Visual Formade for Report
%%For:vagrant
%%Title:Visual Formade for Report Print
%%CreationDate:Wed Jul 20 19:11:05 JST 2016
%%EndComments
%%BeginProlog
%%BeginResource: procset VFRPS97
