%!PS-Adobe-3.0
%%Pages: (atend)
%%Creator:Visual Formade for Report
%%For:vagrant
%%Title:Visual Formade for Report Print
%%CreationDate:Wed Jul 20 19:11:05 JST 2016
%%EndComments
%%BeginProlog
%%BeginResource: procset VFRPS97
/VFRPS97 100 dict dup begin
userdict /FXFontDirectory 20 dict put
userdict /FXOrgFindfont /findfont load put
/findfont{
userdict /FXFontDirectory get exch 2 copy known{
get
}{
dup FXOrgFindfont dup
4 1 roll put
}ifelse
}bind def
/bd{bind def}bind def
/ld{load def}bd
/ed{exch def}bd
/a/currentpoint ld
/c/curveto ld
/d/dup ld
/e/eofill ld
/f/fill ld
/tr/translate ld
/gr/grestore ld
/gs/gsave ld
/L/lineto ld
/M/moveto ld
/n /newpath ld
/cp/closepath ld
/rm/rmoveto ld
/slc/setlinecap ld
/slj/setlinejoin ld
/slw/setlinewidth ld
/sd/setdash ld
/g /setgray ld
/r/setrgbcolor ld
/sc/setcolor ld
/R/rotate ld
/s/stroke ld
/t/show ld
/aw/awidthshow ld
/MS{moveto show}bd
/MAS{moveto ashow}bd
/SF{findfont exch scalefont setfont}bd
/SF2{scalefont setfont}bd
/SM{cmtx setmatrix}bd
/MF{findfont exch makefont setfont}bd
/MF2{makefont setfont}bd
/CM{/cmtx matrix currentmatrix def}bd
/MM{matrix makepattern}bd
/AS/ashow ld
/RS/rectstroke ld
/B{closepath gsave fill grestore stroke}bd
/OUT{moveto true charpath gs 1 g f gr s flattenpath}bd
/OUTTR{moveto false charpath s flattenpath}bd
/MSB{moveto gs blw slw dup show dup stringwidth neg exch neg exch rm{false charpath stroke}stopped{pop blw dup rm show}if gr}bd
/CX{currentpoint pop}bd
/CY{currentpoint exch pop}bd
/ff/findfont ld
/cf/currentfile ld
/rh/readhexstring ld
/blw 1 def
%%EndResource
%%EndProlog
%%BeginSetup
1 dict dup /Policies 1 dict dup /PageSize 1 put put setpagedevice
1 dict dup /Policies 1 dict dup /HWResolution 1 put put setpagedevice
1 dict dup /Policies 1 dict dup /Duplex 1 put put setpagedevice
1 dict dup /Policies 1 dict dup /PolicyNotFound 1 put put setpagedevice
1 dict dup /HWResolution [400 400] put setpagedevice
%%EndSetup
/Proc001
{
0 slj
0 slc
4 slw
[] 0 sd
n 392 2625.0 M
392 2595 L
1132 2595 L
1132 2623 L
392 2623 L
s
n 722 2593.0 M
722 1909 L
760 1909 L
760 2591 L
722 2591 L
s
n 1314 2639.0 M
1314 2591 L
1694 2591 L
1694 2637 L
1314 2637 L
s
n 1256 2627.0 M
1256 1901 L
1296 1901 L
1296 2625 L
1256 2625 L
s
n 1304 2303.0 M
1304 2261 L
1698 2261 L
1698 2301 L
1304 2301 L
s
n 1296 1963.0 M
1296 1913 L
1726 1913 L
1726 1961 L
1296 1961 L
s
n 1930 2633.0 M
1930 2581 L
2324 2581 L
2324 2631 L
1930 2631 L
s
n 1916 2553.0 M
1916 2221 L
1970 2221 L
1970 2551 L
1916 2551 L
s
n 2002 2241.0 M
2002 2191 L
2324 2191 L
2324 2239 L
2002 2239 L
s
n 2316 2169.0 M
2316 1837 L
2366 1837 L
2366 2167 L
2316 2167 L
s
n 1916 1925.0 M
1916 1837 L
2316 1837 L
2316 1923 L
1916 1923 L
s
n 2512 2643.0 M
2512 2565 L
3118 2565 L
3118 2641 L
2512 2641 L
s
n 2806 2533.0 M
2806 1813 L
2882 1813 L
2882 2531 L
2806 2531 L
s
4 slw
[] 0 sd
486 3447 M 1076 3457 L
s
776 3451 M 780 2811 L
s
1294 3459 M 1682 3449 L
s
1304 3455 M 1310 2857 L
s
1312 3159 M 1680 3143 L
s
1310 2857 M 1690 2821 L
s
2242 3471 M 1870 3459 L
s
1862 3451 M 1872 3141 L
s
1882 3137 M 2236 3137 L
s
2238 3135 M 2222 2825 L
s
1926 2831 M 2222 2825 L
s
2532 3435 M 3054 3431 L
s
2822 3427 M 2848 2749 L
s
} def
%%Page: 1 1
%%BeginPageSetup
currentpagedevice /NumCopies known
{1 dict dup /NumCopies 1 put setpagedevice} if
currentpagedevice /Collate known
{1 dict dup /Collate false put setpagedevice} if
currentpagedevice /DeferredMediaSelection known
{1 dict dup /DeferredMediaSelection true put setpagedevice} if
2 dict dup /PageSize [595 842] put dup /ImagingBBox null put setpagedevice
currentpagedevice /Duplex known
{1 dict dup /Duplex false put setpagedevice} if
%%EndPageSetup
[0.18 0 0 0.18 0 0] concat
0 slj
0 slc
Proc001
0 g [] 0 sd
0.1 slw
0.1 slw
0 g [] 0 sd
0.1 slw
0 g
[600 0 0 600 0 0]/Ryumin-Light-RKSJ-H MF
(T)498 3794 MS
(E)798 3794 MS
(S)1098 3794 MS
(T)1398 3794 MS
showpage
end
%%Trailer
%%Pages: 1
%%EOF
